%YAML 1.1
%TAG !u! tag:unity3d.com,2011:
--- !u!1 &5304229634717199574
GameObject:
  m_ObjectHideFlags: 0
  m_CorrespondingSourceObject: {fileID: 0}
  m_PrefabInstance: {fileID: 0}
  m_PrefabAsset: {fileID: 0}
  serializedVersion: 6
  m_Component:
  - component: {fileID: 7063235350918037733}
  m_Layer: 0
  m_Name: Wall 4x15
  m_TagString: Untagged
  m_Icon: {fileID: 0}
  m_NavMeshLayer: 0
  m_StaticEditorFlags: 0
  m_IsActive: 1
--- !u!4 &7063235350918037733
Transform:
  m_ObjectHideFlags: 0
  m_CorrespondingSourceObject: {fileID: 0}
  m_PrefabInstance: {fileID: 0}
  m_PrefabAsset: {fileID: 0}
  m_GameObject: {fileID: 5304229634717199574}
  m_LocalRotation: {x: 0, y: 0, z: 0, w: 1}
  m_LocalPosition: {x: 0, y: 0, z: 0}
  m_LocalScale: {x: 1, y: 1, z: 1}
  m_Children:
  - {fileID: 245581029326144218}
  - {fileID: 8239113017724418310}
  m_Father: {fileID: 0}
  m_RootOrder: 0
  m_LocalEulerAnglesHint: {x: 0, y: 0, z: 0}
--- !u!1001 &489355658927241102
PrefabInstance:
  m_ObjectHideFlags: 0
  serializedVersion: 2
  m_Modification:
    m_TransformParent: {fileID: 7063235350918037733}
    m_Modifications:
    - target: {fileID: 7181466876236680009, guid: 009215e4e80e2384783bed58f20e5d73,
        type: 3}
      propertyPath: m_Name
      value: Wall 2x15
      objectReference: {fileID: 0}
    - target: {fileID: 8403083319804022408, guid: 009215e4e80e2384783bed58f20e5d73,
        type: 3}
      propertyPath: m_RootOrder
      value: 1
      objectReference: {fileID: 0}
    - target: {fileID: 8403083319804022408, guid: 009215e4e80e2384783bed58f20e5d73,
        type: 3}
      propertyPath: m_LocalPosition.x
      value: -21
      objectReference: {fileID: 0}
    - target: {fileID: 8403083319804022408, guid: 009215e4e80e2384783bed58f20e5d73,
        type: 3}
      propertyPath: m_LocalPosition.y
      value: 0
      objectReference: {fileID: 0}
    - target: {fileID: 8403083319804022408, guid: 009215e4e80e2384783bed58f20e5d73,
        type: 3}
      propertyPath: m_LocalPosition.z
      value: 0
      objectReference: {fileID: 0}
    - target: {fileID: 8403083319804022408, guid: 009215e4e80e2384783bed58f20e5d73,
        type: 3}
      propertyPath: m_LocalRotation.w
      value: 1
      objectReference: {fileID: 0}
    - target: {fileID: 8403083319804022408, guid: 009215e4e80e2384783bed58f20e5d73,
        type: 3}
      propertyPath: m_LocalRotation.x
      value: -0
      objectReference: {fileID: 0}
    - target: {fileID: 8403083319804022408, guid: 009215e4e80e2384783bed58f20e5d73,
        type: 3}
      propertyPath: m_LocalRotation.y
      value: -0
      objectReference: {fileID: 0}
    - target: {fileID: 8403083319804022408, guid: 009215e4e80e2384783bed58f20e5d73,
        type: 3}
      propertyPath: m_LocalRotation.z
      value: -0
      objectReference: {fileID: 0}
    - target: {fileID: 8403083319804022408, guid: 009215e4e80e2384783bed58f20e5d73,
        type: 3}
      propertyPath: m_LocalEulerAnglesHint.x
      value: 0
      objectReference: {fileID: 0}
    - target: {fileID: 8403083319804022408, guid: 009215e4e80e2384783bed58f20e5d73,
        type: 3}
      propertyPath: m_LocalEulerAnglesHint.y
      value: 0
      objectReference: {fileID: 0}
    - target: {fileID: 8403083319804022408, guid: 009215e4e80e2384783bed58f20e5d73,
        type: 3}
      propertyPath: m_LocalEulerAnglesHint.z
      value: 0
      objectReference: {fileID: 0}
    m_RemovedComponents: []
  m_SourcePrefab: {fileID: 100100000, guid: 009215e4e80e2384783bed58f20e5d73, type: 3}
--- !u!4 &8239113017724418310 stripped
Transform:
  m_CorrespondingSourceObject: {fileID: 8403083319804022408, guid: 009215e4e80e2384783bed58f20e5d73,
    type: 3}
  m_PrefabInstance: {fileID: 489355658927241102}
  m_PrefabAsset: {fileID: 0}
--- !u!1001 &8644032106623831122
PrefabInstance:
  m_ObjectHideFlags: 0
  serializedVersion: 2
  m_Modification:
    m_TransformParent: {fileID: 7063235350918037733}
    m_Modifications:
    - target: {fileID: 7181466876236680009, guid: 009215e4e80e2384783bed58f20e5d73,
        type: 3}
      propertyPath: m_Name
      value: Wall 2x15 (1)
      objectReference: {fileID: 0}
    - target: {fileID: 8403083319804022408, guid: 009215e4e80e2384783bed58f20e5d73,
        type: 3}
      propertyPath: m_RootOrder
      value: 0
      objectReference: {fileID: 0}
    - target: {fileID: 8403083319804022408, guid: 009215e4e80e2384783bed58f20e5d73,
        type: 3}
      propertyPath: m_LocalPosition.x
      value: -21
      objectReference: {fileID: 0}
    - target: {fileID: 8403083319804022408, guid: 009215e4e80e2384783bed58f20e5d73,
        type: 3}
      propertyPath: m_LocalPosition.y
      value: 8
      objectReference: {fileID: 0}
    - target: {fileID: 8403083319804022408, guid: 009215e4e80e2384783bed58f20e5d73,
        type: 3}
      propertyPath: m_LocalPosition.z
      value: 0
      objectReference: {fileID: 0}
    - target: {fileID: 8403083319804022408, guid: 009215e4e80e2384783bed58f20e5d73,
        type: 3}
      propertyPath: m_LocalRotation.w
      value: 1
      objectReference: {fileID: 0}
    - target: {fileID: 8403083319804022408, guid: 009215e4e80e2384783bed58f20e5d73,
        type: 3}
      propertyPath: m_LocalRotation.x
      value: -0
      objectReference: {fileID: 0}
    - target: {fileID: 8403083319804022408, guid: 009215e4e80e2384783bed58f20e5d73,
        type: 3}
      propertyPath: m_LocalRotation.y
      value: -0
      objectReference: {fileID: 0}
    - target: {fileID: 8403083319804022408, guid: 009215e4e80e2384783bed58f20e5d73,
        type: 3}
      propertyPath: m_LocalRotation.z
      value: -0
      objectReference: {fileID: 0}
    - target: {fileID: 8403083319804022408, guid: 009215e4e80e2384783bed58f20e5d73,
        type: 3}
      propertyPath: m_LocalEulerAnglesHint.x
      value: 0
      objectReference: {fileID: 0}
    - target: {fileID: 8403083319804022408, guid: 009215e4e80e2384783bed58f20e5d73,
        type: 3}
      propertyPath: m_LocalEulerAnglesHint.y
      value: 0
      objectReference: {fileID: 0}
    - target: {fileID: 8403083319804022408, guid: 009215e4e80e2384783bed58f20e5d73,
        type: 3}
      propertyPath: m_LocalEulerAnglesHint.z
      value: 0
      objectReference: {fileID: 0}
    m_RemovedComponents: []
  m_SourcePrefab: {fileID: 100100000, guid: 009215e4e80e2384783bed58f20e5d73, type: 3}
--- !u!4 &245581029326144218 stripped
Transform:
  m_CorrespondingSourceObject: {fileID: 8403083319804022408, guid: 009215e4e80e2384783bed58f20e5d73,
    type: 3}
  m_PrefabInstance: {fileID: 8644032106623831122}
  m_PrefabAsset: {fileID: 0}
